<?xml version="1.0" encoding="UTF-8"?>
<svg xmlns="http://www.w3.org/2000/svg" xmlns:xlink="http://www.w3.org/1999/xlink" width="1085pt" height="689pt" viewBox="0 0 1085 689" version="1.1">
<defs>
<g>
<symbol overflow="visible" id="glyph0-0">
<path style="stroke:none;" d="M 1.25 0 L 1.25 -6.25 L 6.25 -6.25 L 6.25 0 Z M 1.40625 -0.15625 L 6.09375 -0.15625 L 6.09375 -6.09375 L 1.40625 -6.09375 Z M 1.40625 -0.15625 "/>
</symbol>
<symbol overflow="visible" id="glyph0-1">
<path style="stroke:none;" d="M 0.421875 -3.53125 C 0.421875 -4.375 0.503906 -5.050781 0.671875 -5.5625 C 0.847656 -6.082031 1.109375 -6.484375 1.453125 -6.765625 C 1.796875 -7.046875 2.226562 -7.1875 2.75 -7.1875 C 3.132812 -7.1875 3.46875 -7.109375 3.75 -6.953125 C 4.039062 -6.796875 4.28125 -6.570312 4.46875 -6.28125 C 4.664062 -5.988281 4.816406 -5.632812 4.921875 -5.21875 C 5.023438 -4.800781 5.078125 -4.238281 5.078125 -3.53125 C 5.078125 -2.6875 4.988281 -2.003906 4.8125 -1.484375 C 4.644531 -0.972656 4.390625 -0.578125 4.046875 -0.296875 C 3.703125 -0.015625 3.269531 0.125 2.75 0.125 C 2.0625 0.125 1.519531 -0.125 1.125 -0.625 C 0.65625 -1.21875 0.421875 -2.1875 0.421875 -3.53125 Z M 1.3125 -3.53125 C 1.3125 -2.351562 1.445312 -1.566406 1.71875 -1.171875 C 2 -0.785156 2.34375 -0.59375 2.75 -0.59375 C 3.15625 -0.59375 3.492188 -0.785156 3.765625 -1.171875 C 4.046875 -1.566406 4.1875 -2.351562 4.1875 -3.53125 C 4.1875 -4.707031 4.046875 -5.488281 3.765625 -5.875 C 3.492188 -6.257812 3.148438 -6.453125 2.734375 -6.453125 C 2.335938 -6.453125 2.015625 -6.285156 1.765625 -5.953125 C 1.460938 -5.515625 1.3125 -4.707031 1.3125 -3.53125 Z M 1.3125 -3.53125 "/>
</symbol>
<symbol overflow="visible" id="glyph0-2">
<path style="stroke:none;" d="M 0.90625 0 L 0.90625 -1 L 1.90625 -1 L 1.90625 0 Z M 0.90625 0 "/>
</symbol>
<symbol overflow="visible" id="glyph0-3">
<path style="stroke:none;" d="M 3.71875 0 L 2.84375 0 L 2.84375 -5.59375 C 2.632812 -5.394531 2.359375 -5.191406 2.015625 -4.984375 C 1.671875 -4.785156 1.363281 -4.640625 1.09375 -4.546875 L 1.09375 -5.390625 C 1.582031 -5.617188 2.007812 -5.894531 2.375 -6.21875 C 2.75 -6.550781 3.007812 -6.875 3.15625 -7.1875 L 3.71875 -7.1875 Z M 3.71875 0 "/>
</symbol>
<symbol overflow="visible" id="glyph0-4">
<path style="stroke:none;" d="M 5.03125 -0.84375 L 5.03125 0 L 0.296875 0 C 0.296875 -0.207031 0.332031 -0.410156 0.40625 -0.609375 C 0.53125 -0.929688 0.722656 -1.25 0.984375 -1.5625 C 1.242188 -1.875 1.628906 -2.234375 2.140625 -2.640625 C 2.910156 -3.285156 3.429688 -3.789062 3.703125 -4.15625 C 3.984375 -4.53125 4.125 -4.882812 4.125 -5.21875 C 4.125 -5.570312 4 -5.863281 3.75 -6.09375 C 3.5 -6.332031 3.175781 -6.453125 2.78125 -6.453125 C 2.351562 -6.453125 2.007812 -6.328125 1.75 -6.078125 C 1.5 -5.828125 1.375 -5.476562 1.375 -5.03125 L 0.46875 -5.125 C 0.53125 -5.789062 0.757812 -6.300781 1.15625 -6.65625 C 1.5625 -7.007812 2.109375 -7.1875 2.796875 -7.1875 C 3.484375 -7.1875 4.023438 -6.992188 4.421875 -6.609375 C 4.828125 -6.234375 5.03125 -5.765625 5.03125 -5.203125 C 5.03125 -4.910156 4.96875 -4.625 4.84375 -4.34375 C 4.726562 -4.070312 4.535156 -3.78125 4.265625 -3.46875 C 3.992188 -3.164062 3.539062 -2.75 2.90625 -2.21875 C 2.382812 -1.78125 2.046875 -1.476562 1.890625 -1.3125 C 1.742188 -1.15625 1.625 -1 1.53125 -0.84375 Z M 5.03125 -0.84375 "/>
</symbol>
<symbol overflow="visible" id="glyph0-5">
<path style="stroke:none;" d="M 0.421875 -1.890625 L 1.296875 -2 C 1.398438 -1.507812 1.570312 -1.148438 1.8125 -0.921875 C 2.050781 -0.703125 2.347656 -0.59375 2.703125 -0.59375 C 3.117188 -0.59375 3.46875 -0.734375 3.75 -1.015625 C 4.03125 -1.304688 4.171875 -1.664062 4.171875 -2.09375 C 4.171875 -2.5 4.039062 -2.832031 3.78125 -3.09375 C 3.519531 -3.351562 3.1875 -3.484375 2.78125 -3.484375 C 2.613281 -3.484375 2.40625 -3.453125 2.15625 -3.390625 L 2.25 -4.15625 C 2.3125 -4.15625 2.359375 -4.15625 2.390625 -4.15625 C 2.765625 -4.15625 3.101562 -4.25 3.40625 -4.4375 C 3.707031 -4.632812 3.859375 -4.9375 3.859375 -5.34375 C 3.859375 -5.664062 3.75 -5.929688 3.53125 -6.140625 C 3.3125 -6.359375 3.03125 -6.46875 2.6875 -6.46875 C 2.34375 -6.46875 2.054688 -6.359375 1.828125 -6.140625 C 1.597656 -5.929688 1.453125 -5.609375 1.390625 -5.171875 L 0.515625 -5.328125 C 0.617188 -5.921875 0.859375 -6.378906 1.234375 -6.703125 C 1.617188 -7.023438 2.09375 -7.1875 2.65625 -7.1875 C 3.050781 -7.1875 3.410156 -7.101562 3.734375 -6.9375 C 4.066406 -6.769531 4.316406 -6.539062 4.484375 -6.25 C 4.660156 -5.957031 4.75 -5.648438 4.75 -5.328125 C 4.75 -5.015625 4.664062 -4.734375 4.5 -4.484375 C 4.34375 -4.234375 4.097656 -4.03125 3.765625 -3.875 C 4.191406 -3.78125 4.519531 -3.578125 4.75 -3.265625 C 4.988281 -2.960938 5.109375 -2.578125 5.109375 -2.109375 C 5.109375 -1.484375 4.878906 -0.953125 4.421875 -0.515625 C 3.960938 -0.0859375 3.390625 0.125 2.703125 0.125 C 2.066406 0.125 1.539062 -0.0625 1.125 -0.4375 C 0.71875 -0.8125 0.484375 -1.296875 0.421875 -1.890625 Z M 0.421875 -1.890625 "/>
</symbol>
<symbol overflow="visible" id="glyph0-6">
<path style="stroke:none;" d="M 3.234375 0 L 3.234375 -1.71875 L 0.125 -1.71875 L 0.125 -2.515625 L 3.390625 -7.15625 L 4.109375 -7.15625 L 4.109375 -2.515625 L 5.078125 -2.515625 L 5.078125 -1.71875 L 4.109375 -1.71875 L 4.109375 0 Z M 3.234375 -2.515625 L 3.234375 -5.75 L 0.984375 -2.515625 Z M 3.234375 -2.515625 "/>
</symbol>
<symbol overflow="visible" id="glyph0-7">
<path style="stroke:none;" d="M 0.421875 -1.875 L 1.34375 -1.953125 C 1.40625 -1.503906 1.5625 -1.164062 1.8125 -0.9375 C 2.0625 -0.707031 2.363281 -0.59375 2.71875 -0.59375 C 3.132812 -0.59375 3.488281 -0.753906 3.78125 -1.078125 C 4.082031 -1.398438 4.234375 -1.820312 4.234375 -2.34375 C 4.234375 -2.84375 4.09375 -3.238281 3.8125 -3.53125 C 3.53125 -3.820312 3.160156 -3.96875 2.703125 -3.96875 C 2.421875 -3.96875 2.164062 -3.898438 1.9375 -3.765625 C 1.707031 -3.640625 1.523438 -3.476562 1.390625 -3.28125 L 0.578125 -3.390625 L 1.265625 -7.0625 L 4.828125 -7.0625 L 4.828125 -6.21875 L 1.96875 -6.21875 L 1.578125 -4.296875 C 2.015625 -4.597656 2.46875 -4.75 2.9375 -4.75 C 3.5625 -4.75 4.085938 -4.53125 4.515625 -4.09375 C 4.941406 -3.664062 5.15625 -3.109375 5.15625 -2.421875 C 5.15625 -1.773438 4.96875 -1.21875 4.59375 -0.75 C 4.132812 -0.164062 3.507812 0.125 2.71875 0.125 C 2.0625 0.125 1.523438 -0.0546875 1.109375 -0.421875 C 0.703125 -0.785156 0.472656 -1.269531 0.421875 -1.875 Z M 0.421875 -1.875 "/>
</symbol>
<symbol overflow="visible" id="glyph0-8">
<path style="stroke:none;" d="M 4.96875 -5.40625 L 4.109375 -5.34375 C 4.023438 -5.6875 3.910156 -5.9375 3.765625 -6.09375 C 3.523438 -6.34375 3.234375 -6.46875 2.890625 -6.46875 C 2.609375 -6.46875 2.363281 -6.390625 2.15625 -6.234375 C 1.875 -6.023438 1.65625 -5.726562 1.5 -5.34375 C 1.34375 -4.957031 1.257812 -4.40625 1.25 -3.6875 C 1.457031 -4.007812 1.710938 -4.25 2.015625 -4.40625 C 2.328125 -4.5625 2.648438 -4.640625 2.984375 -4.640625 C 3.578125 -4.640625 4.078125 -4.421875 4.484375 -3.984375 C 4.898438 -3.554688 5.109375 -3.003906 5.109375 -2.328125 C 5.109375 -1.878906 5.007812 -1.460938 4.8125 -1.078125 C 4.613281 -0.691406 4.34375 -0.394531 4 -0.1875 C 3.664062 0.0195312 3.285156 0.125 2.859375 0.125 C 2.128906 0.125 1.53125 -0.144531 1.0625 -0.6875 C 0.601562 -1.226562 0.375 -2.113281 0.375 -3.34375 C 0.375 -4.726562 0.628906 -5.738281 1.140625 -6.375 C 1.585938 -6.914062 2.1875 -7.1875 2.9375 -7.1875 C 3.507812 -7.1875 3.972656 -7.023438 4.328125 -6.703125 C 4.691406 -6.390625 4.90625 -5.957031 4.96875 -5.40625 Z M 1.390625 -2.3125 C 1.390625 -2.007812 1.453125 -1.71875 1.578125 -1.4375 C 1.703125 -1.164062 1.878906 -0.957031 2.109375 -0.8125 C 2.347656 -0.664062 2.59375 -0.59375 2.84375 -0.59375 C 3.21875 -0.59375 3.535156 -0.742188 3.796875 -1.046875 C 4.066406 -1.347656 4.203125 -1.753906 4.203125 -2.265625 C 4.203125 -2.765625 4.066406 -3.15625 3.796875 -3.4375 C 3.535156 -3.726562 3.207031 -3.875 2.8125 -3.875 C 2.414062 -3.875 2.078125 -3.726562 1.796875 -3.4375 C 1.523438 -3.15625 1.390625 -2.78125 1.390625 -2.3125 Z M 1.390625 -2.3125 "/>
</symbol>
<symbol overflow="visible" id="glyph0-9">
<path style="stroke:none;" d="M 1.765625 -3.875 C 1.398438 -4.007812 1.128906 -4.203125 0.953125 -4.453125 C 0.773438 -4.703125 0.6875 -5 0.6875 -5.34375 C 0.6875 -5.863281 0.875 -6.300781 1.25 -6.65625 C 1.625 -7.007812 2.125 -7.1875 2.75 -7.1875 C 3.375 -7.1875 3.875 -7.003906 4.25 -6.640625 C 4.632812 -6.273438 4.828125 -5.832031 4.828125 -5.3125 C 4.828125 -4.976562 4.738281 -4.6875 4.5625 -4.4375 C 4.394531 -4.195312 4.132812 -4.007812 3.78125 -3.875 C 4.21875 -3.738281 4.550781 -3.507812 4.78125 -3.1875 C 5.007812 -2.863281 5.125 -2.484375 5.125 -2.046875 C 5.125 -1.429688 4.90625 -0.914062 4.46875 -0.5 C 4.039062 -0.0820312 3.472656 0.125 2.765625 0.125 C 2.054688 0.125 1.484375 -0.0820312 1.046875 -0.5 C 0.617188 -0.925781 0.40625 -1.453125 0.40625 -2.078125 C 0.40625 -2.535156 0.519531 -2.921875 0.75 -3.234375 C 0.988281 -3.554688 1.328125 -3.769531 1.765625 -3.875 Z M 1.59375 -5.375 C 1.59375 -5.03125 1.703125 -4.75 1.921875 -4.53125 C 2.140625 -4.320312 2.421875 -4.21875 2.765625 -4.21875 C 3.109375 -4.21875 3.382812 -4.320312 3.59375 -4.53125 C 3.8125 -4.75 3.921875 -5.015625 3.921875 -5.328125 C 3.921875 -5.648438 3.804688 -5.921875 3.578125 -6.140625 C 3.359375 -6.359375 3.085938 -6.46875 2.765625 -6.46875 C 2.421875 -6.46875 2.140625 -6.359375 1.921875 -6.140625 C 1.703125 -5.929688 1.59375 -5.675781 1.59375 -5.375 Z M 1.3125 -2.0625 C 1.3125 -1.8125 1.367188 -1.566406 1.484375 -1.328125 C 1.609375 -1.097656 1.785156 -0.914062 2.015625 -0.78125 C 2.253906 -0.65625 2.507812 -0.59375 2.78125 -0.59375 C 3.195312 -0.59375 3.539062 -0.726562 3.8125 -1 C 4.082031 -1.269531 4.21875 -1.613281 4.21875 -2.03125 C 4.21875 -2.457031 4.078125 -2.804688 3.796875 -3.078125 C 3.515625 -3.359375 3.164062 -3.5 2.75 -3.5 C 2.332031 -3.5 1.988281 -3.363281 1.71875 -3.09375 C 1.445312 -2.820312 1.3125 -2.476562 1.3125 -2.0625 Z M 1.3125 -2.0625 "/>
</symbol>
<symbol overflow="visible" id="glyph1-0">
<path style="stroke:none;" d="M 0.625 0 L 0.625 -8 L 4.375 -8 L 4.375 0 Z M 1.25 -0.625 L 3.75 -0.625 L 3.75 -7.375 L 1.25 -7.375 Z M 1.25 -0.625 "/>
</symbol>
<symbol overflow="visible" id="glyph1-1">
<path style="stroke:none;" d="M 6.8125 -3.484375 C 6.8125 -3.191406 6.773438 -2.90625 6.703125 -2.625 C 6.628906 -2.351562 6.519531 -2.09375 6.375 -1.84375 C 6.238281 -1.59375 6.070312 -1.359375 5.875 -1.140625 C 5.6875 -0.929688 5.476562 -0.738281 5.25 -0.5625 C 5.019531 -0.394531 4.769531 -0.25 4.5 -0.125 C 4.238281 -0.0078125 3.972656 0.0703125 3.703125 0.125 L 3.296875 2 L 2.421875 2 L 2.8125 0.125 C 2.507812 0.101562 2.234375 0.0351562 1.984375 -0.078125 C 1.742188 -0.203125 1.539062 -0.359375 1.375 -0.546875 C 1.207031 -0.734375 1.078125 -0.953125 0.984375 -1.203125 C 0.898438 -1.460938 0.859375 -1.742188 0.859375 -2.046875 C 0.859375 -2.285156 0.882812 -2.53125 0.9375 -2.78125 C 1 -3.039062 1.085938 -3.289062 1.203125 -3.53125 C 1.316406 -3.769531 1.453125 -3.992188 1.609375 -4.203125 C 1.765625 -4.421875 1.941406 -4.609375 2.140625 -4.765625 C 2.347656 -4.929688 2.570312 -5.0625 2.8125 -5.15625 C 3.050781 -5.25 3.300781 -5.296875 3.5625 -5.296875 L 3.234375 -4.53125 C 2.984375 -4.457031 2.769531 -4.335938 2.59375 -4.171875 C 2.414062 -4.015625 2.265625 -3.828125 2.140625 -3.609375 C 2.023438 -3.390625 1.9375 -3.15625 1.875 -2.90625 C 1.8125 -2.664062 1.78125 -2.425781 1.78125 -2.1875 C 1.78125 -2 1.804688 -1.816406 1.859375 -1.640625 C 1.910156 -1.472656 1.984375 -1.320312 2.078125 -1.1875 C 2.179688 -1.050781 2.304688 -0.9375 2.453125 -0.84375 C 2.609375 -0.75 2.785156 -0.6875 2.984375 -0.65625 L 3.65625 -3.875 C 3.707031 -4.082031 3.765625 -4.273438 3.828125 -4.453125 C 3.890625 -4.628906 3.972656 -4.78125 4.078125 -4.90625 C 4.179688 -5.03125 4.3125 -5.125 4.46875 -5.1875 C 4.632812 -5.257812 4.84375 -5.296875 5.09375 -5.296875 C 5.375 -5.296875 5.617188 -5.253906 5.828125 -5.171875 C 6.046875 -5.085938 6.226562 -4.960938 6.375 -4.796875 C 6.519531 -4.640625 6.628906 -4.445312 6.703125 -4.21875 C 6.773438 -4 6.8125 -3.753906 6.8125 -3.484375 Z M 5.890625 -3.5 C 5.890625 -3.613281 5.878906 -3.734375 5.859375 -3.859375 C 5.835938 -3.984375 5.800781 -4.097656 5.75 -4.203125 C 5.695312 -4.304688 5.625 -4.394531 5.53125 -4.46875 C 5.4375 -4.539062 5.320312 -4.578125 5.1875 -4.578125 C 5.0625 -4.578125 4.957031 -4.546875 4.875 -4.484375 C 4.800781 -4.429688 4.738281 -4.359375 4.6875 -4.265625 C 4.632812 -4.179688 4.59375 -4.082031 4.5625 -3.96875 C 4.539062 -3.863281 4.519531 -3.765625 4.5 -3.671875 L 3.859375 -0.671875 C 4.171875 -0.734375 4.453125 -0.859375 4.703125 -1.046875 C 4.953125 -1.234375 5.164062 -1.457031 5.34375 -1.71875 C 5.519531 -1.988281 5.65625 -2.273438 5.75 -2.578125 C 5.84375 -2.890625 5.890625 -3.195312 5.890625 -3.5 Z M 5.890625 -3.5 "/>
</symbol>
<symbol overflow="visible" id="glyph1-2">
<path style="stroke:none;" d="M 1.6875 2 L 0.921875 2 L 0.921875 -7.15625 L 1.6875 -7.15625 Z M 1.6875 2 "/>
</symbol>
<symbol overflow="visible" id="glyph1-3">
<path style="stroke:none;" d="M 6.796875 -5.1875 C 6.617188 -4.863281 6.457031 -4.535156 6.3125 -4.203125 C 6.164062 -3.878906 6.019531 -3.550781 5.875 -3.21875 C 5.769531 -2.988281 5.664062 -2.757812 5.5625 -2.53125 C 5.457031 -2.300781 5.375 -2.066406 5.3125 -1.828125 C 5.28125 -1.710938 5.253906 -1.597656 5.234375 -1.484375 C 5.222656 -1.378906 5.21875 -1.269531 5.21875 -1.15625 C 5.21875 -1.113281 5.21875 -1.066406 5.21875 -1.015625 C 5.226562 -0.972656 5.242188 -0.929688 5.265625 -0.890625 C 5.285156 -0.847656 5.3125 -0.8125 5.34375 -0.78125 C 5.375 -0.75 5.421875 -0.734375 5.484375 -0.734375 C 5.546875 -0.734375 5.609375 -0.742188 5.671875 -0.765625 C 5.734375 -0.796875 5.789062 -0.828125 5.84375 -0.859375 L 6.5 -0.328125 C 6.414062 -0.253906 6.328125 -0.191406 6.234375 -0.140625 C 6.140625 -0.0859375 6.039062 -0.0390625 5.9375 0 C 5.832031 0.03125 5.722656 0.0546875 5.609375 0.078125 C 5.503906 0.0976562 5.398438 0.109375 5.296875 0.109375 C 5.128906 0.109375 4.988281 0.078125 4.875 0.015625 C 4.769531 -0.0351562 4.679688 -0.109375 4.609375 -0.203125 C 4.546875 -0.296875 4.5 -0.40625 4.46875 -0.53125 C 4.4375 -0.664062 4.421875 -0.804688 4.421875 -0.953125 C 4.296875 -0.785156 4.164062 -0.632812 4.03125 -0.5 C 3.894531 -0.363281 3.75 -0.25 3.59375 -0.15625 C 3.4375 -0.0703125 3.269531 -0.00390625 3.09375 0.046875 C 2.914062 0.0976562 2.71875 0.125 2.5 0.125 C 2.21875 0.125 1.96875 0.078125 1.75 -0.015625 C 1.539062 -0.109375 1.363281 -0.234375 1.21875 -0.390625 C 1.082031 -0.554688 0.976562 -0.75 0.90625 -0.96875 C 0.832031 -1.195312 0.796875 -1.445312 0.796875 -1.71875 C 0.796875 -1.988281 0.820312 -2.265625 0.875 -2.546875 C 0.9375 -2.835938 1.019531 -3.113281 1.125 -3.375 C 1.238281 -3.644531 1.375 -3.894531 1.53125 -4.125 C 1.6875 -4.351562 1.867188 -4.554688 2.078125 -4.734375 C 2.296875 -4.910156 2.535156 -5.046875 2.796875 -5.140625 C 3.054688 -5.242188 3.34375 -5.296875 3.65625 -5.296875 C 3.90625 -5.296875 4.128906 -5.265625 4.328125 -5.203125 C 4.535156 -5.140625 4.707031 -5.046875 4.84375 -4.921875 C 4.988281 -4.796875 5.097656 -4.640625 5.171875 -4.453125 C 5.242188 -4.273438 5.28125 -4.066406 5.28125 -3.828125 C 5.28125 -3.804688 5.28125 -3.785156 5.28125 -3.765625 C 5.28125 -3.742188 5.28125 -3.722656 5.28125 -3.703125 L 5.28125 -3.625 C 5.332031 -3.75 5.378906 -3.878906 5.421875 -4.015625 C 5.472656 -4.148438 5.519531 -4.28125 5.5625 -4.40625 C 5.613281 -4.539062 5.664062 -4.671875 5.71875 -4.796875 C 5.769531 -4.929688 5.832031 -5.0625 5.90625 -5.1875 Z M 4.6875 -3.328125 C 4.6875 -3.492188 4.664062 -3.648438 4.625 -3.796875 C 4.59375 -3.953125 4.535156 -4.085938 4.453125 -4.203125 C 4.367188 -4.316406 4.257812 -4.40625 4.125 -4.46875 C 4 -4.539062 3.84375 -4.578125 3.65625 -4.578125 C 3.4375 -4.578125 3.234375 -4.535156 3.046875 -4.453125 C 2.867188 -4.378906 2.707031 -4.273438 2.5625 -4.140625 C 2.425781 -4.003906 2.300781 -3.84375 2.1875 -3.65625 C 2.082031 -3.476562 1.992188 -3.289062 1.921875 -3.09375 C 1.859375 -2.894531 1.804688 -2.691406 1.765625 -2.484375 C 1.734375 -2.285156 1.71875 -2.09375 1.71875 -1.90625 C 1.71875 -1.738281 1.734375 -1.578125 1.765625 -1.421875 C 1.804688 -1.265625 1.867188 -1.125 1.953125 -1 C 2.035156 -0.875 2.140625 -0.773438 2.265625 -0.703125 C 2.398438 -0.628906 2.566406 -0.59375 2.765625 -0.59375 C 2.984375 -0.59375 3.179688 -0.632812 3.359375 -0.71875 C 3.535156 -0.8125 3.691406 -0.925781 3.828125 -1.0625 C 3.972656 -1.207031 4.097656 -1.375 4.203125 -1.5625 C 4.316406 -1.75 4.40625 -1.941406 4.46875 -2.140625 C 4.539062 -2.347656 4.59375 -2.550781 4.625 -2.75 C 4.664062 -2.957031 4.6875 -3.148438 4.6875 -3.328125 Z M 4.6875 -3.328125 "/>
</symbol>
<symbol overflow="visible" id="glyph2-0">
<path style="stroke:none;" d="M 1.125 0 L 1.125 -5.625 L 5.625 -5.625 L 5.625 0 Z M 1.265625 -0.140625 L 5.484375 -0.140625 L 5.484375 -5.484375 L 1.265625 -5.484375 Z M 1.265625 -0.140625 "/>
</symbol>
<symbol overflow="visible" id="glyph2-1">
<path style="stroke:none;" d="M 3.453125 -0.578125 C 3.171875 -0.335938 2.898438 -0.160156 2.640625 -0.046875 C 2.390625 0.0546875 2.117188 0.109375 1.828125 0.109375 C 1.398438 0.109375 1.050781 -0.015625 0.78125 -0.265625 C 0.519531 -0.523438 0.390625 -0.851562 0.390625 -1.25 C 0.390625 -1.507812 0.445312 -1.738281 0.5625 -1.9375 C 0.6875 -2.132812 0.847656 -2.296875 1.046875 -2.421875 C 1.242188 -2.546875 1.484375 -2.632812 1.765625 -2.6875 C 1.941406 -2.71875 2.28125 -2.742188 2.78125 -2.765625 C 3.28125 -2.785156 3.640625 -2.835938 3.859375 -2.921875 C 3.921875 -3.140625 3.953125 -3.320312 3.953125 -3.46875 C 3.953125 -3.65625 3.882812 -3.800781 3.75 -3.90625 C 3.5625 -4.050781 3.289062 -4.125 2.9375 -4.125 C 2.601562 -4.125 2.328125 -4.046875 2.109375 -3.890625 C 1.898438 -3.742188 1.75 -3.535156 1.65625 -3.265625 L 0.859375 -3.34375 C 1.015625 -3.800781 1.269531 -4.148438 1.625 -4.390625 C 1.988281 -4.640625 2.441406 -4.765625 2.984375 -4.765625 C 3.554688 -4.765625 4.007812 -4.628906 4.34375 -4.359375 C 4.601562 -4.148438 4.734375 -3.882812 4.734375 -3.5625 C 4.734375 -3.3125 4.695312 -3.019531 4.625 -2.6875 L 4.375 -1.53125 C 4.289062 -1.164062 4.25 -0.867188 4.25 -0.640625 C 4.25 -0.484375 4.28125 -0.269531 4.34375 0 L 3.53125 0 C 3.488281 -0.15625 3.460938 -0.347656 3.453125 -0.578125 Z M 3.734375 -2.359375 C 3.628906 -2.316406 3.507812 -2.285156 3.375 -2.265625 C 3.25 -2.242188 3.039062 -2.21875 2.75 -2.1875 C 2.28125 -2.144531 1.953125 -2.09375 1.765625 -2.03125 C 1.578125 -1.96875 1.429688 -1.867188 1.328125 -1.734375 C 1.234375 -1.597656 1.1875 -1.445312 1.1875 -1.28125 C 1.1875 -1.050781 1.257812 -0.863281 1.40625 -0.71875 C 1.5625 -0.582031 1.785156 -0.515625 2.078125 -0.515625 C 2.335938 -0.515625 2.585938 -0.582031 2.828125 -0.71875 C 3.078125 -0.851562 3.269531 -1.046875 3.40625 -1.296875 C 3.550781 -1.546875 3.660156 -1.898438 3.734375 -2.359375 Z M 3.734375 -2.359375 "/>
</symbol>
<symbol overflow="visible" id="glyph3-0">
<path style="stroke:none;" d="M 1.125 0 L 1.125 -5.625 L 5.625 -5.625 L 5.625 0 Z M 1.265625 -0.140625 L 5.484375 -0.140625 L 5.484375 -5.484375 L 1.265625 -5.484375 Z M 1.265625 -0.140625 "/>
</symbol>
<symbol overflow="visible" id="glyph3-1">
<path style="stroke:none;" d="M 0.375 -3.171875 C 0.375 -3.929688 0.453125 -4.546875 0.609375 -5.015625 C 0.765625 -5.484375 0.992188 -5.84375 1.296875 -6.09375 C 1.609375 -6.34375 2 -6.46875 2.46875 -6.46875 C 2.820312 -6.46875 3.128906 -6.394531 3.390625 -6.25 C 3.648438 -6.113281 3.863281 -5.914062 4.03125 -5.65625 C 4.195312 -5.394531 4.328125 -5.078125 4.421875 -4.703125 C 4.523438 -4.328125 4.578125 -3.816406 4.578125 -3.171875 C 4.578125 -2.421875 4.5 -1.8125 4.34375 -1.34375 C 4.1875 -0.882812 3.953125 -0.523438 3.640625 -0.265625 C 3.335938 -0.015625 2.945312 0.109375 2.46875 0.109375 C 1.851562 0.109375 1.367188 -0.113281 1.015625 -0.5625 C 0.585938 -1.09375 0.375 -1.960938 0.375 -3.171875 Z M 1.1875 -3.171875 C 1.1875 -2.117188 1.304688 -1.414062 1.546875 -1.0625 C 1.796875 -0.71875 2.101562 -0.546875 2.46875 -0.546875 C 2.832031 -0.546875 3.140625 -0.71875 3.390625 -1.0625 C 3.640625 -1.414062 3.765625 -2.117188 3.765625 -3.171875 C 3.765625 -4.234375 3.640625 -4.9375 3.390625 -5.28125 C 3.140625 -5.632812 2.832031 -5.8125 2.46875 -5.8125 C 2.101562 -5.8125 1.8125 -5.660156 1.59375 -5.359375 C 1.320312 -4.960938 1.1875 -4.234375 1.1875 -3.171875 Z M 1.1875 -3.171875 "/>
</symbol>
<symbol overflow="visible" id="glyph3-2">
<path style="stroke:none;" d="M 4.53125 -0.765625 L 4.53125 0 L 0.265625 0 C 0.265625 -0.1875 0.296875 -0.367188 0.359375 -0.546875 C 0.472656 -0.835938 0.648438 -1.125 0.890625 -1.40625 C 1.128906 -1.6875 1.472656 -2.007812 1.921875 -2.375 C 2.617188 -2.957031 3.085938 -3.414062 3.328125 -3.75 C 3.578125 -4.082031 3.703125 -4.398438 3.703125 -4.703125 C 3.703125 -5.015625 3.585938 -5.273438 3.359375 -5.484375 C 3.140625 -5.703125 2.851562 -5.8125 2.5 -5.8125 C 2.113281 -5.8125 1.804688 -5.695312 1.578125 -5.46875 C 1.347656 -5.238281 1.234375 -4.921875 1.234375 -4.515625 L 0.421875 -4.609375 C 0.472656 -5.210938 0.679688 -5.671875 1.046875 -5.984375 C 1.410156 -6.304688 1.898438 -6.46875 2.515625 -6.46875 C 3.128906 -6.46875 3.613281 -6.296875 3.96875 -5.953125 C 4.332031 -5.609375 4.515625 -5.1875 4.515625 -4.6875 C 4.515625 -4.425781 4.460938 -4.171875 4.359375 -3.921875 C 4.253906 -3.671875 4.078125 -3.40625 3.828125 -3.125 C 3.585938 -2.851562 3.1875 -2.476562 2.625 -2 C 2.144531 -1.601562 1.835938 -1.332031 1.703125 -1.1875 C 1.566406 -1.039062 1.457031 -0.898438 1.375 -0.765625 Z M 4.53125 -0.765625 "/>
</symbol>
<symbol overflow="visible" id="glyph3-3">
<path style="stroke:none;" d="M 0.296875 -2.328125 C 0.296875 -3.191406 0.535156 -3.832031 1.015625 -4.25 C 1.421875 -4.59375 1.910156 -4.765625 2.484375 -4.765625 C 3.128906 -4.765625 3.65625 -4.554688 4.0625 -4.140625 C 4.46875 -3.722656 4.671875 -3.144531 4.671875 -2.40625 C 4.671875 -1.800781 4.578125 -1.328125 4.390625 -0.984375 C 4.210938 -0.640625 3.953125 -0.367188 3.609375 -0.171875 C 3.265625 0.015625 2.890625 0.109375 2.484375 0.109375 C 1.828125 0.109375 1.296875 -0.0976562 0.890625 -0.515625 C 0.492188 -0.941406 0.296875 -1.546875 0.296875 -2.328125 Z M 1.109375 -2.328125 C 1.109375 -1.734375 1.238281 -1.285156 1.5 -0.984375 C 1.757812 -0.691406 2.085938 -0.546875 2.484375 -0.546875 C 2.878906 -0.546875 3.207031 -0.691406 3.46875 -0.984375 C 3.726562 -1.285156 3.859375 -1.742188 3.859375 -2.359375 C 3.859375 -2.929688 3.726562 -3.367188 3.46875 -3.671875 C 3.207031 -3.972656 2.878906 -4.125 2.484375 -4.125 C 2.085938 -4.125 1.757812 -3.972656 1.5 -3.671875 C 1.238281 -3.378906 1.109375 -2.929688 1.109375 -2.328125 Z M 1.109375 -2.328125 "/>
</symbol>
<symbol overflow="visible" id="glyph3-4">
<path style="stroke:none;" d="M 0.59375 1.78125 L 0.59375 -4.671875 L 1.3125 -4.671875 L 1.3125 -4.0625 C 1.476562 -4.300781 1.664062 -4.476562 1.875 -4.59375 C 2.09375 -4.707031 2.359375 -4.765625 2.671875 -4.765625 C 3.066406 -4.765625 3.414062 -4.660156 3.71875 -4.453125 C 4.019531 -4.253906 4.25 -3.96875 4.40625 -3.59375 C 4.5625 -3.21875 4.640625 -2.8125 4.640625 -2.375 C 4.640625 -1.894531 4.550781 -1.460938 4.375 -1.078125 C 4.207031 -0.691406 3.960938 -0.394531 3.640625 -0.1875 C 3.316406 0.0078125 2.972656 0.109375 2.609375 0.109375 C 2.347656 0.109375 2.113281 0.0507812 1.90625 -0.0625 C 1.695312 -0.175781 1.523438 -0.316406 1.390625 -0.484375 L 1.390625 1.78125 Z M 1.3125 -2.3125 C 1.3125 -1.707031 1.429688 -1.257812 1.671875 -0.96875 C 1.921875 -0.6875 2.21875 -0.546875 2.5625 -0.546875 C 2.90625 -0.546875 3.203125 -0.691406 3.453125 -0.984375 C 3.710938 -1.285156 3.84375 -1.75 3.84375 -2.375 C 3.84375 -2.96875 3.71875 -3.410156 3.46875 -3.703125 C 3.226562 -4.003906 2.9375 -4.15625 2.59375 -4.15625 C 2.257812 -4.15625 1.960938 -3.992188 1.703125 -3.671875 C 1.441406 -3.359375 1.3125 -2.90625 1.3125 -2.3125 Z M 1.3125 -2.3125 "/>
</symbol>
<symbol overflow="visible" id="glyph3-5">
<path style="stroke:none;" d="M 2.328125 -0.703125 L 2.4375 -0.015625 C 2.207031 0.0351562 2.007812 0.0625 1.84375 0.0625 C 1.550781 0.0625 1.328125 0.015625 1.171875 -0.078125 C 1.015625 -0.171875 0.898438 -0.289062 0.828125 -0.4375 C 0.765625 -0.582031 0.734375 -0.890625 0.734375 -1.359375 L 0.734375 -4.046875 L 0.15625 -4.046875 L 0.15625 -4.671875 L 0.734375 -4.671875 L 0.734375 -5.828125 L 1.53125 -6.296875 L 1.53125 -4.671875 L 2.328125 -4.671875 L 2.328125 -4.046875 L 1.53125 -4.046875 L 1.53125 -1.328125 C 1.53125 -1.097656 1.539062 -0.953125 1.5625 -0.890625 C 1.59375 -0.828125 1.640625 -0.773438 1.703125 -0.734375 C 1.765625 -0.691406 1.851562 -0.671875 1.96875 -0.671875 C 2.0625 -0.671875 2.179688 -0.679688 2.328125 -0.703125 Z M 2.328125 -0.703125 "/>
</symbol>
<symbol overflow="visible" id="glyph3-6">
<path style="stroke:none;" d="M 0.59375 -5.53125 L 0.59375 -6.4375 L 1.390625 -6.4375 L 1.390625 -5.53125 Z M 0.59375 0 L 0.59375 -4.671875 L 1.390625 -4.671875 L 1.390625 0 Z M 0.59375 0 "/>
</symbol>
<symbol overflow="visible" id="glyph3-7">
<path style="stroke:none;" d="M 0.59375 0 L 0.59375 -4.671875 L 1.296875 -4.671875 L 1.296875 -4.015625 C 1.441406 -4.242188 1.632812 -4.425781 1.875 -4.5625 C 2.125 -4.695312 2.40625 -4.765625 2.71875 -4.765625 C 3.0625 -4.765625 3.34375 -4.691406 3.5625 -4.546875 C 3.78125 -4.410156 3.9375 -4.210938 4.03125 -3.953125 C 4.40625 -4.492188 4.882812 -4.765625 5.46875 -4.765625 C 5.9375 -4.765625 6.296875 -4.632812 6.546875 -4.375 C 6.796875 -4.125 6.921875 -3.734375 6.921875 -3.203125 L 6.921875 0 L 6.125 0 L 6.125 -2.9375 C 6.125 -3.257812 6.097656 -3.488281 6.046875 -3.625 C 6.003906 -3.757812 5.914062 -3.867188 5.78125 -3.953125 C 5.644531 -4.046875 5.484375 -4.09375 5.296875 -4.09375 C 4.972656 -4.09375 4.703125 -3.984375 4.484375 -3.765625 C 4.265625 -3.546875 4.15625 -3.195312 4.15625 -2.71875 L 4.15625 0 L 3.359375 0 L 3.359375 -3.03125 C 3.359375 -3.382812 3.296875 -3.648438 3.171875 -3.828125 C 3.046875 -4.003906 2.835938 -4.09375 2.546875 -4.09375 C 2.316406 -4.09375 2.109375 -4.03125 1.921875 -3.90625 C 1.734375 -3.789062 1.597656 -3.617188 1.515625 -3.390625 C 1.429688 -3.171875 1.390625 -2.847656 1.390625 -2.421875 L 1.390625 0 Z M 0.59375 0 "/>
</symbol>
<symbol overflow="visible" id="glyph3-8">
<path style="stroke:none;" d="M 3.640625 -0.578125 C 3.347656 -0.328125 3.066406 -0.148438 2.796875 -0.046875 C 2.523438 0.0546875 2.234375 0.109375 1.921875 0.109375 C 1.410156 0.109375 1.015625 -0.015625 0.734375 -0.265625 C 0.460938 -0.515625 0.328125 -0.835938 0.328125 -1.234375 C 0.328125 -1.460938 0.378906 -1.671875 0.484375 -1.859375 C 0.585938 -2.046875 0.722656 -2.195312 0.890625 -2.3125 C 1.054688 -2.425781 1.242188 -2.515625 1.453125 -2.578125 C 1.609375 -2.609375 1.84375 -2.644531 2.15625 -2.6875 C 2.800781 -2.757812 3.273438 -2.851562 3.578125 -2.96875 C 3.578125 -3.070312 3.578125 -3.140625 3.578125 -3.171875 C 3.578125 -3.492188 3.503906 -3.71875 3.359375 -3.84375 C 3.148438 -4.03125 2.847656 -4.125 2.453125 -4.125 C 2.078125 -4.125 1.800781 -4.054688 1.625 -3.921875 C 1.445312 -3.796875 1.316406 -3.566406 1.234375 -3.234375 L 0.46875 -3.328125 C 0.53125 -3.660156 0.640625 -3.925781 0.796875 -4.125 C 0.960938 -4.332031 1.195312 -4.488281 1.5 -4.59375 C 1.8125 -4.707031 2.164062 -4.765625 2.5625 -4.765625 C 2.96875 -4.765625 3.289062 -4.71875 3.53125 -4.625 C 3.78125 -4.53125 3.960938 -4.410156 4.078125 -4.265625 C 4.203125 -4.128906 4.285156 -3.953125 4.328125 -3.734375 C 4.359375 -3.597656 4.375 -3.359375 4.375 -3.015625 L 4.375 -1.953125 C 4.375 -1.222656 4.390625 -0.757812 4.421875 -0.5625 C 4.453125 -0.363281 4.519531 -0.175781 4.625 0 L 3.796875 0 C 3.710938 -0.164062 3.660156 -0.359375 3.640625 -0.578125 Z M 3.578125 -2.34375 C 3.285156 -2.226562 2.851562 -2.128906 2.28125 -2.046875 C 1.957031 -1.992188 1.726562 -1.9375 1.59375 -1.875 C 1.457031 -1.820312 1.351562 -1.738281 1.28125 -1.625 C 1.207031 -1.507812 1.171875 -1.382812 1.171875 -1.25 C 1.171875 -1.039062 1.25 -0.863281 1.40625 -0.71875 C 1.5625 -0.582031 1.796875 -0.515625 2.109375 -0.515625 C 2.410156 -0.515625 2.679688 -0.582031 2.921875 -0.71875 C 3.160156 -0.851562 3.335938 -1.035156 3.453125 -1.265625 C 3.535156 -1.441406 3.578125 -1.703125 3.578125 -2.046875 Z M 3.578125 -2.34375 "/>
</symbol>
<symbol overflow="visible" id="glyph3-9">
<path style="stroke:none;" d="M 0.578125 0 L 0.578125 -6.4375 L 1.359375 -6.4375 L 1.359375 0 Z M 0.578125 0 "/>
</symbol>
</g>
<clipPath id="clip1">
  <path d="M 136 24 L 1048 24 L 1048 676 L 136 676 Z M 136 24 "/>
</clipPath>
</defs>
<g id="surface47">
<g clip-path="url(#clip1)" clip-rule="nonzero">
<path style="fill:none;stroke-width:1.6;stroke-linecap:square;stroke-linejoin:miter;stroke:rgb(36.84082%,50.67749%,70.979309%);stroke-opacity:1;stroke-miterlimit:3.25;" d="M 210.078125 29 L 214.789062 78.289062 L 215.128906 81.601562 L 215.46875 84.890625 L 216.144531 91.382812 L 217.5 104.054688 L 220.207031 128.203125 L 220.546875 131.117188 L 220.882812 134.003906 L 221.5625 139.714844 L 222.914062 150.871094 L 225.625 172.171875 L 225.960938 174.746094 L 226.300781 177.300781 L 226.976562 182.347656 L 228.332031 192.21875 L 231.042969 211.105469 L 236.457031 245.738281 L 236.789062 247.738281 L 237.121094 249.722656 L 237.789062 253.652344 L 239.117188 261.355469 L 241.777344 276.148438 L 247.09375 303.488281 L 247.425781 305.105469 L 247.757812 306.710938 L 248.425781 309.890625 L 249.753906 316.132812 L 252.414062 328.152344 L 257.730469 350.480469 L 258.042969 351.714844 L 258.351562 352.945312 L 258.972656 355.382812 L 260.210938 360.175781 L 262.691406 369.453125 L 267.652344 386.84375 L 267.964844 387.878906 L 268.273438 388.914062 L 268.894531 390.960938 L 270.132812 394.996094 L 272.613281 402.820312 L 277.574219 417.53125 L 277.910156 418.484375 L 278.246094 419.433594 L 278.917969 421.320312 L 280.265625 425.023438 L 282.953125 432.207031 L 288.332031 445.691406 L 289.003906 447.300781 L 289.679688 448.890625 L 291.023438 452.027344 L 293.710938 458.113281 L 299.09375 469.578125 L 299.71875 470.859375 L 300.347656 472.128906 L 301.601562 474.628906 L 304.113281 479.503906 L 309.136719 488.75 L 309.761719 489.859375 L 310.390625 490.960938 L 311.648438 493.136719 L 314.15625 497.375 L 319.179688 505.433594 L 319.796875 506.386719 L 320.410156 507.328125 L 321.640625 509.195312 L 324.101562 512.835938 L 329.027344 519.777344 L 329.332031 520.195312 L 329.640625 520.613281 L 330.257812 521.445312 L 331.488281 523.089844 L 333.949219 526.300781 L 338.871094 532.4375 L 339.207031 532.839844 L 339.539062 533.242188 L 340.207031 534.039062 L 341.542969 535.617188 L 344.214844 538.695312 L 349.554688 544.566406 L 360.238281 555.273438 L 360.863281 555.859375 L 361.484375 556.4375 L 362.730469 557.589844 L 365.222656 559.84375 L 370.207031 564.171875 L 380.175781 572.164062 L 380.511719 572.417969 L 380.851562 572.675781 L 381.527344 573.183594 L 382.875 574.1875 L 385.578125 576.15625 L 390.980469 579.9375 L 401.785156 586.914062 L 402.449219 587.320312 L 403.113281 587.722656 L 404.4375 588.519531 L 407.089844 590.078125 L 412.394531 593.089844 L 423 598.679688 L 423.308594 598.832031 L 424.238281 599.296875 L 425.472656 599.90625 L 427.949219 601.105469 L 432.894531 603.429688 L 442.785156 607.78125 L 444.128906 608.34375 L 445.46875 608.898438 L 448.152344 609.992188 L 453.515625 612.105469 L 464.246094 616.0625 L 484.277344 622.59375 L 505.980469 628.632812 L 527.289062 633.703125 L 547.167969 637.804688 L 568.722656 641.6875 L 588.84375 644.863281 L 608.574219 647.625 L 629.976562 650.285156 L 649.945312 652.492188 L 671.59375 654.636719 L 692.84375 656.519531 L 712.664062 658.101562 L 734.160156 659.65625 L 754.226562 660.972656 L 773.898438 662.152344 L 795.242188 663.324219 L 815.15625 664.320312 L 836.746094 665.316406 L 856.902344 666.167969 L 876.667969 666.941406 L 898.105469 667.71875 L 918.113281 668.386719 L 939.792969 669.0625 L 961.082031 669.675781 L 980.9375 670.207031 L 1002.46875 670.746094 L 1022.570312 671.214844 L 1042.277344 671.644531 L 1063.65625 672.082031 L 1083.605469 672.464844 L 1083.953125 672.472656 L 1084.304688 672.480469 L 1085 672.492188 L 1086.390625 672.519531 L 1089.175781 672.570312 L 1094.742188 672.671875 L 1095.089844 672.675781 L 1095.4375 672.683594 L 1096.132812 672.695312 L 1097.527344 672.722656 L 1100.308594 672.769531 L 1100.65625 672.777344 L 1101.007812 672.78125 L 1101.703125 672.796875 L 1103.09375 672.820312 L 1103.441406 672.824219 L 1103.789062 672.832031 L 1104.484375 672.84375 L 1104.832031 672.851562 L 1105.179688 672.855469 L 1105.53125 672.863281 L 1105.878906 672.867188 " transform="matrix(1,0,0,1,-66,-5)"/>
</g>
<path style="fill:none;stroke-width:0.2;stroke-linecap:butt;stroke-linejoin:miter;stroke:rgb(39.99939%,39.99939%,39.99939%);stroke-opacity:1;stroke-miterlimit:3.25;" d="M 92 681.71875 L 92 677.671875 " transform="matrix(1,0,0,1,-66,-5)"/>
<g style="fill:rgb(39.99939%,39.99939%,39.99939%);fill-opacity:1;">
  <use xlink:href="#glyph0-1" x="19" y="688.71957"/>
  <use xlink:href="#glyph0-2" x="25" y="688.71957"/>
  <use xlink:href="#glyph0-1" x="28" y="688.71957"/>
</g>
<path style="fill:none;stroke-width:0.2;stroke-linecap:butt;stroke-linejoin:miter;stroke:rgb(39.99939%,39.99939%,39.99939%);stroke-opacity:1;stroke-miterlimit:3.25;" d="M 132.554688 681.71875 L 132.554688 679.289062 " transform="matrix(1,0,0,1,-66,-5)"/>
<path style="fill:none;stroke-width:0.2;stroke-linecap:butt;stroke-linejoin:miter;stroke:rgb(39.99939%,39.99939%,39.99939%);stroke-opacity:1;stroke-miterlimit:3.25;" d="M 173.109375 681.71875 L 173.109375 679.289062 " transform="matrix(1,0,0,1,-66,-5)"/>
<path style="fill:none;stroke-width:0.2;stroke-linecap:butt;stroke-linejoin:miter;stroke:rgb(39.99939%,39.99939%,39.99939%);stroke-opacity:1;stroke-miterlimit:3.25;" d="M 213.664062 681.71875 L 213.664062 679.289062 " transform="matrix(1,0,0,1,-66,-5)"/>
<path style="fill:none;stroke-width:0.2;stroke-linecap:butt;stroke-linejoin:miter;stroke:rgb(39.99939%,39.99939%,39.99939%);stroke-opacity:1;stroke-miterlimit:3.25;" d="M 254.21875 681.71875 L 254.21875 679.289062 " transform="matrix(1,0,0,1,-66,-5)"/>
<path style="fill:none;stroke-width:0.2;stroke-linecap:butt;stroke-linejoin:miter;stroke:rgb(39.99939%,39.99939%,39.99939%);stroke-opacity:1;stroke-miterlimit:3.25;" d="M 294.777344 681.71875 L 294.777344 677.671875 " transform="matrix(1,0,0,1,-66,-5)"/>
<g style="fill:rgb(39.99939%,39.99939%,39.99939%);fill-opacity:1;">
  <use xlink:href="#glyph0-1" x="221.775514" y="688.71957"/>
  <use xlink:href="#glyph0-2" x="227.775514" y="688.71957"/>
  <use xlink:href="#glyph0-3" x="230.775514" y="688.71957"/>
</g>
<path style="fill:none;stroke-width:0.2;stroke-linecap:butt;stroke-linejoin:miter;stroke:rgb(39.99939%,39.99939%,39.99939%);stroke-opacity:1;stroke-miterlimit:3.25;" d="M 335.332031 681.71875 L 335.332031 679.289062 " transform="matrix(1,0,0,1,-66,-5)"/>
<path style="fill:none;stroke-width:0.2;stroke-linecap:butt;stroke-linejoin:miter;stroke:rgb(39.99939%,39.99939%,39.99939%);stroke-opacity:1;stroke-miterlimit:3.25;" d="M 375.886719 681.71875 L 375.886719 679.289062 " transform="matrix(1,0,0,1,-66,-5)"/>
<path style="fill:none;stroke-width:0.2;stroke-linecap:butt;stroke-linejoin:miter;stroke:rgb(39.99939%,39.99939%,39.99939%);stroke-opacity:1;stroke-miterlimit:3.25;" d="M 416.441406 681.71875 L 416.441406 679.289062 " transform="matrix(1,0,0,1,-66,-5)"/>
<path style="fill:none;stroke-width:0.2;stroke-linecap:butt;stroke-linejoin:miter;stroke:rgb(39.99939%,39.99939%,39.99939%);stroke-opacity:1;stroke-miterlimit:3.25;" d="M 456.996094 681.71875 L 456.996094 679.289062 " transform="matrix(1,0,0,1,-66,-5)"/>
<path style="fill:none;stroke-width:0.2;stroke-linecap:butt;stroke-linejoin:miter;stroke:rgb(39.99939%,39.99939%,39.99939%);stroke-opacity:1;stroke-miterlimit:3.25;" d="M 497.550781 681.71875 L 497.550781 677.671875 " transform="matrix(1,0,0,1,-66,-5)"/>
<g style="fill:rgb(39.99939%,39.99939%,39.99939%);fill-opacity:1;">
  <use xlink:href="#glyph0-1" x="424.551029" y="688.71957"/>
  <use xlink:href="#glyph0-2" x="430.551029" y="688.71957"/>
  <use xlink:href="#glyph0-4" x="433.551029" y="688.71957"/>
</g>
<path style="fill:none;stroke-width:0.2;stroke-linecap:butt;stroke-linejoin:miter;stroke:rgb(39.99939%,39.99939%,39.99939%);stroke-opacity:1;stroke-miterlimit:3.25;" d="M 538.105469 681.71875 L 538.105469 679.289062 " transform="matrix(1,0,0,1,-66,-5)"/>
<path style="fill:none;stroke-width:0.2;stroke-linecap:butt;stroke-linejoin:miter;stroke:rgb(39.99939%,39.99939%,39.99939%);stroke-opacity:1;stroke-miterlimit:3.25;" d="M 578.660156 681.71875 L 578.660156 679.289062 " transform="matrix(1,0,0,1,-66,-5)"/>
<path style="fill:none;stroke-width:0.2;stroke-linecap:butt;stroke-linejoin:miter;stroke:rgb(39.99939%,39.99939%,39.99939%);stroke-opacity:1;stroke-miterlimit:3.25;" d="M 619.214844 681.71875 L 619.214844 679.289062 " transform="matrix(1,0,0,1,-66,-5)"/>
<path style="fill:none;stroke-width:0.2;stroke-linecap:butt;stroke-linejoin:miter;stroke:rgb(39.99939%,39.99939%,39.99939%);stroke-opacity:1;stroke-miterlimit:3.25;" d="M 659.769531 681.71875 L 659.769531 679.289062 " transform="matrix(1,0,0,1,-66,-5)"/>
<path style="fill:none;stroke-width:0.2;stroke-linecap:butt;stroke-linejoin:miter;stroke:rgb(39.99939%,39.99939%,39.99939%);stroke-opacity:1;stroke-miterlimit:3.25;" d="M 700.328125 681.71875 L 700.328125 677.671875 " transform="matrix(1,0,0,1,-66,-5)"/>
<g style="fill:rgb(39.99939%,39.99939%,39.99939%);fill-opacity:1;">
  <use xlink:href="#glyph0-1" x="627.326543" y="688.71957"/>
  <use xlink:href="#glyph0-2" x="633.326543" y="688.71957"/>
  <use xlink:href="#glyph0-5" x="636.326543" y="688.71957"/>
</g>
<path style="fill:none;stroke-width:0.2;stroke-linecap:butt;stroke-linejoin:miter;stroke:rgb(39.99939%,39.99939%,39.99939%);stroke-opacity:1;stroke-miterlimit:3.25;" d="M 740.882812 681.71875 L 740.882812 679.289062 " transform="matrix(1,0,0,1,-66,-5)"/>
<path style="fill:none;stroke-width:0.2;stroke-linecap:butt;stroke-linejoin:miter;stroke:rgb(39.99939%,39.99939%,39.99939%);stroke-opacity:1;stroke-miterlimit:3.25;" d="M 781.4375 681.71875 L 781.4375 679.289062 " transform="matrix(1,0,0,1,-66,-5)"/>
<path style="fill:none;stroke-width:0.2;stroke-linecap:butt;stroke-linejoin:miter;stroke:rgb(39.99939%,39.99939%,39.99939%);stroke-opacity:1;stroke-miterlimit:3.25;" d="M 821.992188 681.71875 L 821.992188 679.289062 " transform="matrix(1,0,0,1,-66,-5)"/>
<path style="fill:none;stroke-width:0.2;stroke-linecap:butt;stroke-linejoin:miter;stroke:rgb(39.99939%,39.99939%,39.99939%);stroke-opacity:1;stroke-miterlimit:3.25;" d="M 862.546875 681.71875 L 862.546875 679.289062 " transform="matrix(1,0,0,1,-66,-5)"/>
<path style="fill:none;stroke-width:0.2;stroke-linecap:butt;stroke-linejoin:miter;stroke:rgb(39.99939%,39.99939%,39.99939%);stroke-opacity:1;stroke-miterlimit:3.25;" d="M 903.101562 681.71875 L 903.101562 677.671875 " transform="matrix(1,0,0,1,-66,-5)"/>
<g style="fill:rgb(39.99939%,39.99939%,39.99939%);fill-opacity:1;">
  <use xlink:href="#glyph0-1" x="830.102057" y="688.71957"/>
  <use xlink:href="#glyph0-2" x="836.102057" y="688.71957"/>
  <use xlink:href="#glyph0-6" x="839.102057" y="688.71957"/>
</g>
<path style="fill:none;stroke-width:0.2;stroke-linecap:butt;stroke-linejoin:miter;stroke:rgb(39.99939%,39.99939%,39.99939%);stroke-opacity:1;stroke-miterlimit:3.25;" d="M 943.65625 681.71875 L 943.65625 679.289062 " transform="matrix(1,0,0,1,-66,-5)"/>
<path style="fill:none;stroke-width:0.2;stroke-linecap:butt;stroke-linejoin:miter;stroke:rgb(39.99939%,39.99939%,39.99939%);stroke-opacity:1;stroke-miterlimit:3.25;" d="M 984.210938 681.71875 L 984.210938 679.289062 " transform="matrix(1,0,0,1,-66,-5)"/>
<path style="fill:none;stroke-width:0.2;stroke-linecap:butt;stroke-linejoin:miter;stroke:rgb(39.99939%,39.99939%,39.99939%);stroke-opacity:1;stroke-miterlimit:3.25;" d="M 1024.765625 681.71875 L 1024.765625 679.289062 " transform="matrix(1,0,0,1,-66,-5)"/>
<path style="fill:none;stroke-width:0.2;stroke-linecap:butt;stroke-linejoin:miter;stroke:rgb(39.99939%,39.99939%,39.99939%);stroke-opacity:1;stroke-miterlimit:3.25;" d="M 1065.324219 681.71875 L 1065.324219 679.289062 " transform="matrix(1,0,0,1,-66,-5)"/>
<path style="fill:none;stroke-width:0.2;stroke-linecap:butt;stroke-linejoin:miter;stroke:rgb(39.99939%,39.99939%,39.99939%);stroke-opacity:1;stroke-miterlimit:3.25;" d="M 1105.878906 681.71875 L 1105.878906 677.671875 " transform="matrix(1,0,0,1,-66,-5)"/>
<g style="fill:rgb(39.99939%,39.99939%,39.99939%);fill-opacity:1;">
  <use xlink:href="#glyph0-1" x="1032.877572" y="688.71957"/>
  <use xlink:href="#glyph0-2" x="1038.877572" y="688.71957"/>
  <use xlink:href="#glyph0-7" x="1041.877572" y="688.71957"/>
</g>
<path style="fill:none;stroke-width:0.2;stroke-linecap:butt;stroke-linejoin:miter;stroke:rgb(39.99939%,39.99939%,39.99939%);stroke-opacity:1;stroke-miterlimit:3.25;" d="M 70.878906 681.71875 L 1127 681.71875 " transform="matrix(1,0,0,1,-66,-5)"/>
<g style="fill:rgb(39.99939%,39.99939%,39.99939%);fill-opacity:1;">
  <use xlink:href="#glyph1-1" x="1069" y="681.21957"/>
</g>
<g style="fill:rgb(39.99939%,39.99939%,39.99939%);fill-opacity:1;">
  <use xlink:href="#glyph2-1" x="1075" y="683.21957"/>
</g>
<g style="fill:rgb(39.99939%,39.99939%,39.99939%);fill-opacity:1;">
  <use xlink:href="#glyph3-1" x="1081" y="676.71957"/>
</g>
<path style="fill:none;stroke-width:0.2;stroke-linecap:butt;stroke-linejoin:miter;stroke:rgb(39.99939%,39.99939%,39.99939%);stroke-opacity:1;stroke-miterlimit:3.25;" d="M 92 681.71875 L 96.050781 681.71875 " transform="matrix(1,0,0,1,-66,-5)"/>
<path style="fill:none;stroke-width:0.2;stroke-linecap:butt;stroke-linejoin:miter;stroke:rgb(39.99939%,39.99939%,39.99939%);stroke-opacity:1;stroke-miterlimit:3.25;" d="M 92 649.082031 L 94.429688 649.082031 " transform="matrix(1,0,0,1,-66,-5)"/>
<path style="fill:none;stroke-width:0.2;stroke-linecap:butt;stroke-linejoin:miter;stroke:rgb(39.99939%,39.99939%,39.99939%);stroke-opacity:1;stroke-miterlimit:3.25;" d="M 92 616.449219 L 94.429688 616.449219 " transform="matrix(1,0,0,1,-66,-5)"/>
<path style="fill:none;stroke-width:0.2;stroke-linecap:butt;stroke-linejoin:miter;stroke:rgb(39.99939%,39.99939%,39.99939%);stroke-opacity:1;stroke-miterlimit:3.25;" d="M 92 583.8125 L 94.429688 583.8125 " transform="matrix(1,0,0,1,-66,-5)"/>
<path style="fill:none;stroke-width:0.2;stroke-linecap:butt;stroke-linejoin:miter;stroke:rgb(39.99939%,39.99939%,39.99939%);stroke-opacity:1;stroke-miterlimit:3.25;" d="M 92 551.175781 L 96.050781 551.175781 " transform="matrix(1,0,0,1,-66,-5)"/>
<g style="fill:rgb(39.99939%,39.99939%,39.99939%);fill-opacity:1;">
  <use xlink:href="#glyph0-4" x="6" y="548.675656"/>
  <use xlink:href="#glyph0-1" x="12" y="548.675656"/>
  <use xlink:href="#glyph0-1" x="18" y="548.675656"/>
</g>
<path style="fill:none;stroke-width:0.2;stroke-linecap:butt;stroke-linejoin:miter;stroke:rgb(39.99939%,39.99939%,39.99939%);stroke-opacity:1;stroke-miterlimit:3.25;" d="M 92 518.539062 L 94.429688 518.539062 " transform="matrix(1,0,0,1,-66,-5)"/>
<path style="fill:none;stroke-width:0.2;stroke-linecap:butt;stroke-linejoin:miter;stroke:rgb(39.99939%,39.99939%,39.99939%);stroke-opacity:1;stroke-miterlimit:3.25;" d="M 92 485.902344 L 94.429688 485.902344 " transform="matrix(1,0,0,1,-66,-5)"/>
<path style="fill:none;stroke-width:0.2;stroke-linecap:butt;stroke-linejoin:miter;stroke:rgb(39.99939%,39.99939%,39.99939%);stroke-opacity:1;stroke-miterlimit:3.25;" d="M 92 453.269531 L 94.429688 453.269531 " transform="matrix(1,0,0,1,-66,-5)"/>
<path style="fill:none;stroke-width:0.2;stroke-linecap:butt;stroke-linejoin:miter;stroke:rgb(39.99939%,39.99939%,39.99939%);stroke-opacity:1;stroke-miterlimit:3.25;" d="M 92 420.632812 L 96.050781 420.632812 " transform="matrix(1,0,0,1,-66,-5)"/>
<g style="fill:rgb(39.99939%,39.99939%,39.99939%);fill-opacity:1;">
  <use xlink:href="#glyph0-6" x="6" y="418.131742"/>
  <use xlink:href="#glyph0-1" x="12" y="418.131742"/>
  <use xlink:href="#glyph0-1" x="18" y="418.131742"/>
</g>
<path style="fill:none;stroke-width:0.2;stroke-linecap:butt;stroke-linejoin:miter;stroke:rgb(39.99939%,39.99939%,39.99939%);stroke-opacity:1;stroke-miterlimit:3.25;" d="M 92 387.996094 L 94.429688 387.996094 " transform="matrix(1,0,0,1,-66,-5)"/>
<path style="fill:none;stroke-width:0.2;stroke-linecap:butt;stroke-linejoin:miter;stroke:rgb(39.99939%,39.99939%,39.99939%);stroke-opacity:1;stroke-miterlimit:3.25;" d="M 92 355.359375 L 94.429688 355.359375 " transform="matrix(1,0,0,1,-66,-5)"/>
<path style="fill:none;stroke-width:0.2;stroke-linecap:butt;stroke-linejoin:miter;stroke:rgb(39.99939%,39.99939%,39.99939%);stroke-opacity:1;stroke-miterlimit:3.25;" d="M 92 322.722656 L 94.429688 322.722656 " transform="matrix(1,0,0,1,-66,-5)"/>
<path style="fill:none;stroke-width:0.2;stroke-linecap:butt;stroke-linejoin:miter;stroke:rgb(39.99939%,39.99939%,39.99939%);stroke-opacity:1;stroke-miterlimit:3.25;" d="M 92 290.085938 L 96.050781 290.085938 " transform="matrix(1,0,0,1,-66,-5)"/>
<g style="fill:rgb(39.99939%,39.99939%,39.99939%);fill-opacity:1;">
  <use xlink:href="#glyph0-8" x="6" y="287.587828"/>
  <use xlink:href="#glyph0-1" x="12" y="287.587828"/>
  <use xlink:href="#glyph0-1" x="18" y="287.587828"/>
</g>
<path style="fill:none;stroke-width:0.2;stroke-linecap:butt;stroke-linejoin:miter;stroke:rgb(39.99939%,39.99939%,39.99939%);stroke-opacity:1;stroke-miterlimit:3.25;" d="M 92 257.453125 L 94.429688 257.453125 " transform="matrix(1,0,0,1,-66,-5)"/>
<path style="fill:none;stroke-width:0.2;stroke-linecap:butt;stroke-linejoin:miter;stroke:rgb(39.99939%,39.99939%,39.99939%);stroke-opacity:1;stroke-miterlimit:3.25;" d="M 92 224.816406 L 94.429688 224.816406 " transform="matrix(1,0,0,1,-66,-5)"/>
<path style="fill:none;stroke-width:0.2;stroke-linecap:butt;stroke-linejoin:miter;stroke:rgb(39.99939%,39.99939%,39.99939%);stroke-opacity:1;stroke-miterlimit:3.25;" d="M 92 192.179688 L 94.429688 192.179688 " transform="matrix(1,0,0,1,-66,-5)"/>
<path style="fill:none;stroke-width:0.2;stroke-linecap:butt;stroke-linejoin:miter;stroke:rgb(39.99939%,39.99939%,39.99939%);stroke-opacity:1;stroke-miterlimit:3.25;" d="M 92 159.542969 L 96.050781 159.542969 " transform="matrix(1,0,0,1,-66,-5)"/>
<g style="fill:rgb(39.99939%,39.99939%,39.99939%);fill-opacity:1;">
  <use xlink:href="#glyph0-9" x="6" y="157.043914"/>
  <use xlink:href="#glyph0-1" x="12" y="157.043914"/>
  <use xlink:href="#glyph0-1" x="18" y="157.043914"/>
</g>
<path style="fill:none;stroke-width:0.2;stroke-linecap:butt;stroke-linejoin:miter;stroke:rgb(39.99939%,39.99939%,39.99939%);stroke-opacity:1;stroke-miterlimit:3.25;" d="M 92 126.90625 L 94.429688 126.90625 " transform="matrix(1,0,0,1,-66,-5)"/>
<path style="fill:none;stroke-width:0.2;stroke-linecap:butt;stroke-linejoin:miter;stroke:rgb(39.99939%,39.99939%,39.99939%);stroke-opacity:1;stroke-miterlimit:3.25;" d="M 92 94.273438 L 94.429688 94.273438 " transform="matrix(1,0,0,1,-66,-5)"/>
<path style="fill:none;stroke-width:0.2;stroke-linecap:butt;stroke-linejoin:miter;stroke:rgb(39.99939%,39.99939%,39.99939%);stroke-opacity:1;stroke-miterlimit:3.25;" d="M 92 61.636719 L 94.429688 61.636719 " transform="matrix(1,0,0,1,-66,-5)"/>
<path style="fill:none;stroke-width:0.2;stroke-linecap:butt;stroke-linejoin:miter;stroke:rgb(39.99939%,39.99939%,39.99939%);stroke-opacity:1;stroke-miterlimit:3.25;" d="M 92 29 L 96.050781 29 " transform="matrix(1,0,0,1,-66,-5)"/>
<g style="fill:rgb(39.99939%,39.99939%,39.99939%);fill-opacity:1;">
  <use xlink:href="#glyph0-3" x="1" y="26.5"/>
  <use xlink:href="#glyph0-1" x="7" y="26.5"/>
  <use xlink:href="#glyph0-1" x="13" y="26.5"/>
  <use xlink:href="#glyph0-1" x="19" y="26.5"/>
</g>
<path style="fill:none;stroke-width:0.2;stroke-linecap:butt;stroke-linejoin:miter;stroke:rgb(39.99939%,39.99939%,39.99939%);stroke-opacity:1;stroke-miterlimit:3.25;" d="M 92 681.71875 L 92 29 " transform="matrix(1,0,0,1,-66,-5)"/>
<g style="fill:rgb(39.99939%,39.99939%,39.99939%);fill-opacity:1;">
  <use xlink:href="#glyph1-2" x="0" y="12"/>
</g>
<g style="fill:rgb(39.99939%,39.99939%,39.99939%);fill-opacity:1;">
  <use xlink:href="#glyph1-3" x="3" y="12"/>
</g>
<path style=" stroke:none;fill-rule:evenodd;fill:rgb(39.99939%,39.99939%,39.99939%);fill-opacity:1;" d="M 13.921875 8.5 L 13.921875 5 L 13 5 L 13 15.5 L 13.921875 15.5 Z M 13.921875 8.5 "/>
<g style="fill:rgb(39.99939%,39.99939%,39.99939%);fill-opacity:1;">
  <use xlink:href="#glyph3-2" x="16" y="7.5"/>
</g>
<g style="fill:rgb(39.99939%,39.99939%,39.99939%);fill-opacity:1;">
  <use xlink:href="#glyph3-3" x="22" y="15.5"/>
  <use xlink:href="#glyph3-4" x="27" y="15.5"/>
  <use xlink:href="#glyph3-5" x="32" y="15.5"/>
  <use xlink:href="#glyph3-6" x="35" y="15.5"/>
  <use xlink:href="#glyph3-7" x="37" y="15.5"/>
  <use xlink:href="#glyph3-8" x="45" y="15.5"/>
  <use xlink:href="#glyph3-9" x="50" y="15.5"/>
</g>
</g>
</svg>
